…
setRasterTmp("raster_temp")
seq234_1019_JanDec <- seqCloudCount(yrs=seq(2010,2019,1), mons="Jan-Dec", seq_len=seq(2,4,1))
seq234_1020_JanApr <- seqCloudCount(yrs=seq(2010,2020,1), mons="Jan-Apr", seq_len=seq(2,4,1))
delRasterTmp("raster_temp")

write_csv(seq234_1019_JanDec, paste0(path,"seq234_1019_JanDec.csv"))
write_csv(seq234_1020_JanApr, paste0(path,"seq234_1020_JanApr.csv"))
```

``` r
seq234_1019_JanDec <- read_csv(paste0(path,"seq234_1019_JanDec.csv"))
print(seq234_1019_JanDec)
```

    ## # A tibble: 24 x 4
    ##    SeqStart SeqEnd SeqLen Count0
    ##       <dbl>  <dbl>  <dbl>  <dbl>
    ##  1     2010   2011      2 471176
    ##  2     2011   2012      2 174806
    ##  3     2012   2013      2  81305
    ##  4     2013   2014      2   6618
    ##  5     2014   2015      2   6018
    ##  6     2015   2016      2   2603
    ##  7     2016   2017      2   2320
    ##  8     2017   2018      2  67761
    ##  9     2018   2019      2  30759
    ## 10     2010   2012      3 141758
    ## # … with 14 more rows
…
![Map of missing pixels for sequences starting
2012](png/seqCloudCount_2012-2015_Jan-Dec.png)

![Map of missing pixels for sequences starting
2016](png/seqCloudCount_2016-2019_Jan-Dec.png)

Now let’s look at the four-month window, Jan-Apr

``` r
seq234_1020_JanApr <- read_csv(paste0(path,"seq234_1020_JanApr.csv"))
print(seq234_1020_JanApr)
```

    ## # A tibble: 27 x 4
    ##    SeqStart SeqEnd SeqLen Count0
    ##       <dbl>  <dbl>  <dbl>  <dbl>
    ##  1     2010   2011      2 697529
    ##  2     2011   2012      2 516305
    ##  3     2012   2013      2 961837
    ##  4     2013   2014      2 241608
    ##  5     2014   2015      2  47155
    ##  6     2015   2016      2   7973
    ##  7     2016   2017      2   9013
    ##  8     2017   2018      2 144952
    ##  9     2018   2019      2 148447
    ## 10     2019   2020      2  34516
    ## # … with 17 more rows
…
