…
    ## -- Conflicts -------------------------------------------------------- tidyverse_conflicts() --
    ## x tidyr::extract() masks raster::extract()
    ## x dplyr::filter()  masks stats::filter()
    ## x dplyr::lag()     masks stats::lag()
    ## x dplyr::select()  masks raster::select()

``` r
#first calculate patch metric (area)
area <- lsm_p_area(sdat.utm[[1]])
area <- area %>% 
  rename(Year = class, Area_ha = value)
area 
```

    ## # A tibble: 37 x 6
    ##    layer level  Year    id metric Area_ha
    ##    <int> <chr> <int> <int> <chr>    <dbl>
    ##  1     1 patch  2011     1 area      1.43
    ##  2     1 patch  2011     2 area      6.42
    ##  3     1 patch  2011     3 area     11.8 
    ##  4     1 patch  2011     4 area      3.30
    ##  5     1 patch  2011     5 area      1.34
    ##  6     1 patch  2012     6 area      7.22
    ##  7     1 patch  2012     7 area      4.28
    ##  8     1 patch  2012     8 area      1.16
    ##  9     1 patch  2012     9 area      1.69
    ## 10     1 patch  2012    10 area      1.16
    ## # ... with 27 more rows
…
